%YAML 1.1
%TAG !u! tag:unity3d.com,2011:
--- !u!21 &2100000
Material:
  serializedVersion: 6
  m_ObjectHideFlags: 0
  m_CorrespondingSourceObject: {fileID: 0}
  m_PrefabInstance: {fileID: 0}
  m_PrefabAsset: {fileID: 0}
  m_Name: water
  m_Shader: {fileID: -6465566751694194690, guid: 0cbb71ffa92af044bbc42b30fb18a7fd, type: 3}
  m_ShaderKeywords: 
  m_LightmapFlags: 4
  m_EnableInstancingVariants: 0
  m_DoubleSidedGI: 0
  m_CustomRenderQueue: -1
  stringTagMap: {}
  disabledShaderPasses: []
  m_SavedProperties:
    serializedVersion: 3
    m_TexEnvs:
    - _MainNormal:
        m_Texture: {fileID: 2800000, guid: 3a66e27c8c9b4844bb166788222e99d7, type: 3}
        m_Scale: {x: 1, y: 1}
        m_Offset: {x: 0, y: 0}
    - _SecondNormal:
        m_Texture: {fileID: 2800000, guid: cb3565c4503c179439efcdac0bc540f3, type: 3}
        m_Scale: {x: 1, y: 1}
        m_Offset: {x: 0, y: 0}
    m_Floats:
    - _Depth: 1
    - _Displacement: 0.29
    - _NormalStrength: 0.181
    - _Smoothness: 0.948
    - _Strength: 0.229
    m_Colors:
    - _DeepColor: {r: 0.14901961, g: 0.4627451, b: 0.50980395, a: 0.87058824}
    - _ShallowColor: {r: 0.6828498, g: 0.9339623, b: 0.926987, a: 0.019607844}
  m_BuildTextureStacks: []
